(module 00313573 (layer F.Cu) (tedit 60E2E2CC)
  (descr 0031.3573-2)
  (tags Connector)
  (fp_text reference J** (at 10.6934 -7.8994) (layer F.SilkS)
    (effects (font (size 1.27 1.27) (thickness 0.254)))
  )
  (fp_text value 00313573 (at 11.445 -0.65) (layer F.SilkS) hide
    (effects (font (size 1.27 1.27) (thickness 0.254)))
  )
  (fp_line (start -6.20014 6.2) (end 33.8 6.2) (layer F.Fab) (width 0.2))
  (fp_line (start -6.20268 6.20014) (end -6.20268 -6.2) (layer F.Fab) (width 0.15))
  (fp_line (start 33.8 6.2) (end 33.8 -6.2) (layer F.Fab) (width 0.2))
  (fp_line (start 33.8 -6.2) (end -6.20268 -6.2) (layer F.Fab) (width 0.2))
  (fp_line (start -11.2 -5.60578) (end -11.2 5.50418) (layer F.Fab) (width 0.2))
  (fp_line (start -11.2 6.2) (end -11.2 6.2) (layer F.SilkS) (width 0.1))
  (fp_line (start -11.2 6.2) (end -11.2 -6.2) (layer F.SilkS) (width 0.1))
  (fp_line (start -11.2 -6.2) (end -11.2 -6.2) (layer F.SilkS) (width 0.1))
  (fp_line (start -11.2 -6.2) (end -11.2 6.2) (layer F.SilkS) (width 0.1))
  (fp_line (start -11.2 -6.2) (end 33.8 -6.2) (layer F.SilkS) (width 0.1))
  (fp_line (start 33.8 -6.2) (end 33.8 -6.2) (layer F.SilkS) (width 0.1))
  (fp_line (start 33.8 -6.2) (end -11.2 -6.2) (layer F.SilkS) (width 0.1))
  (fp_line (start -11.2 -6.2) (end -11.2 -6.2) (layer F.SilkS) (width 0.1))
  (fp_line (start 33.8 -6.2) (end 33.8 -6.2) (layer F.SilkS) (width 0.1))
  (fp_line (start 33.8 -6.2) (end 33.8 -1.5) (layer F.SilkS) (width 0.1))
  (fp_line (start 33.8 -1.5) (end 33.8 -1.5) (layer F.SilkS) (width 0.1))
  (fp_line (start 33.8 -1.5) (end 33.8 -6.2) (layer F.SilkS) (width 0.1))
  (fp_line (start 33.8 1.75) (end 33.8 1.75) (layer F.SilkS) (width 0.1))
  (fp_line (start 33.8 1.75) (end 33.8 6.2) (layer F.SilkS) (width 0.1))
  (fp_line (start 33.8 6.2) (end 33.8 6.2) (layer F.SilkS) (width 0.1))
  (fp_line (start 33.8 6.2) (end 33.8 1.75) (layer F.SilkS) (width 0.1))
  (fp_line (start 33.8 6.2) (end -11.2 6.2) (layer F.SilkS) (width 0.1))
  (fp_line (start -11.2 6.2) (end -11.2 6.2) (layer F.SilkS) (width 0.1))
  (fp_line (start -11.2 6.2) (end 33.8 6.2) (layer F.SilkS) (width 0.1))
  (fp_line (start 33.8 6.2) (end 33.8 6.2) (layer F.SilkS) (width 0.1))
  (fp_line (start -12.2 -6.75) (end 35.09 -6.75) (layer F.CrtYd) (width 0.1))
  (fp_line (start 35.09 -6.75) (end 35.09 6.7) (layer F.CrtYd) (width 0.1))
  (fp_line (start 35.09 6.7) (end -12.2 6.7) (layer F.CrtYd) (width 0.1))
  (fp_line (start -12.2 6.7) (end -12.2 -6.75) (layer F.CrtYd) (width 0.1))
  (fp_text user %R (at 11.445 -0.65) (layer F.Fab)
    (effects (font (size 1.27 1.27) (thickness 0.254)))
  )
  (pad "" np_thru_hole circle (at 0 0) (size 2.1 2.1) (drill 2.1) (layers *.Cu *.Mask))
  (pad 1 thru_hole circle (at 17.8 0) (size 2.1 2.1) (drill 1.4) (layers *.Cu *.Paste *.Mask))
  (pad 2 thru_hole circle (at 33.04 0) (size 2.1 2.1) (drill 1.4) (layers *.Cu *.Paste *.Mask))
  (model ${CUSTOMPRETTY}/0031.3573_custom.stp
    (offset (xyz -6.25 6.25 0.1))
    (scale (xyz 1 1 1))
    (rotate (xyz 0 0 90))
  )
)
