(footprint "10130248-001LF" (version 20221018) (generator pcbnew)
  (layer "F.Cu")
  (attr through_hole)
  (fp_text reference "REF**" (at -34.3624 -5.9017) (layer "F.SilkS")
      (effects (font (size 1 1) (thickness 0.15)))
    (tstamp 3416d43b-28e5-4479-ab48-019522199222)
  )
  (fp_text value "10130248-001LF" (at -1.1684 4.4107) (layer "F.Fab")
      (effects (font (size 1 1) (thickness 0.15)))
    (tstamp 5139de37-5a02-4719-b013-04381c0f5576)
  )
  (fp_text user "PCB EDGE" (at -1.1773 6.3411) (layer "F.Fab")
      (effects (font (size 1 1) (thickness 0.15)))
    (tstamp 2dda097b-6df6-46a8-bf39-306eef959d06)
  )
  (fp_text user "REF**" (at -0.8763 2.7597) (layer "F.Fab")
      (effects (font (size 1 1) (thickness 0.15)))
    (tstamp 43606f4c-e32a-4c50-bd7b-6fd72130d068)
  )
  (fp_line (start -36.75 -5) (end -36.75 5)
    (stroke (width 0.12) (type solid)) (layer "B.CrtYd") (tstamp decb1a0e-4cb7-4e9d-990e-973f4cb8c30a))
  (fp_line (start 36.75 -5) (end -36.75 -5)
    (stroke (width 0.12) (type solid)) (layer "B.CrtYd") (tstamp c61b2260-bb37-4ee3-a449-4e921df3d315))
  (fp_line (start 36.75 -5) (end 36.75 5)
    (stroke (width 0.12) (type solid)) (layer "B.CrtYd") (tstamp db56363d-2989-460b-a13a-36e148d4c3ef))
  (fp_line (start 36.75 5) (end -36.75 5)
    (stroke (width 0.12) (type solid)) (layer "B.CrtYd") (tstamp f9f76511-f3f8-4230-914b-6da2f9373904))
  (fp_line (start -36.75 -5) (end -36.75 5)
    (stroke (width 0.12) (type solid)) (layer "F.CrtYd") (tstamp 284727f3-1d9a-4079-97dc-2d8256e08bcd))
  (fp_line (start 36.75 -5) (end -36.75 -5)
    (stroke (width 0.12) (type solid)) (layer "F.CrtYd") (tstamp 76ad41ff-981e-435a-9363-bb252800d1cb))
  (fp_line (start 36.75 -5) (end 36.75 5)
    (stroke (width 0.12) (type solid)) (layer "F.CrtYd") (tstamp f6e4f195-a159-4e51-b4e1-29d7e53fad7e))
  (fp_line (start 36.75 5) (end -36.75 5)
    (stroke (width 0.12) (type solid)) (layer "F.CrtYd") (tstamp 2a2147dd-6106-4dcb-9934-f04f70afe482))
  (fp_line (start -36.75 -5) (end -36.75 5)
    (stroke (width 0.12) (type solid)) (layer "F.Fab") (tstamp 141d8515-0602-4d00-bebf-dd359445424e))
  (fp_line (start -36.75 5) (end 36.75 5)
    (stroke (width 0.15) (type solid)) (layer "F.Fab") (tstamp a0f2080d-c2ef-43fc-8621-7685cf0af4f6))
  (fp_line (start 36.75 -5) (end -36.75 -5)
    (stroke (width 0.12) (type solid)) (layer "F.Fab") (tstamp e4c8871a-2f1e-440b-aed0-5fda932eea0e))
  (fp_line (start 36.75 -5) (end 36.75 5)
    (stroke (width 0.12) (type solid)) (layer "F.Fab") (tstamp 5ab4b916-b03c-45fb-8a01-cb3473c286e9))
  (pad "" np_thru_hole circle (at -33.2994 1.0071) (size 2.18 2.18) (drill 2.18) (layers "*.Cu" "*.Mask") (tstamp 3eb06798-3d7f-4d48-a41d-ae648da9943b))
  (pad "" np_thru_hole circle (at 33.3006 1.0071) (size 2.18 2.18) (drill 2.18) (layers "*.Cu" "*.Mask") (tstamp 9e1b7527-11a0-4a5b-a73a-61bae984ff09))
  (pad "P1" thru_hole circle (at -30.5094 -0.2629) (size 2 2) (drill 1.15) (layers "*.Cu" "*.Mask") (tstamp a52998e4-fb59-4db1-b56e-33c385848671))
  (pad "P2" thru_hole circle (at -27.9694 -0.2629) (size 2 2) (drill 1.15) (layers "*.Cu" "*.Mask") (tstamp 2aa57074-bf71-4d65-9b8b-fa5d67c7d619))
  (pad "P3" thru_hole circle (at -25.4294 -0.2629) (size 2 2) (drill 1.15) (layers "*.Cu" "*.Mask") (tstamp c4f04372-f440-4f6d-b7e6-d5e8719f7b02))
  (pad "P4" thru_hole circle (at -22.8894 -0.2629) (size 2 2) (drill 1.15) (layers "*.Cu" "*.Mask") (tstamp 556f0cf3-c645-4bd8-afc0-bd3ad3f49a3c))
  (pad "P5" thru_hole circle (at -20.3494 -0.2629) (size 2 2) (drill 1.15) (layers "*.Cu" "*.Mask") (tstamp 16fa45d3-7394-4756-ab7d-101cbc9e3273))
  (pad "P6" thru_hole circle (at -17.8094 -0.2629) (size 2 2) (drill 1.15) (layers "*.Cu" "*.Mask") (tstamp 39cc5355-c7ab-4dcb-9da2-bcf828687a87))
  (pad "P7" thru_hole circle (at -15.2694 -0.2629) (size 2 2) (drill 1.15) (layers "*.Cu" "*.Mask") (tstamp d2dacd89-80a8-430e-b4d2-0d0f80665494))
  (pad "P8" thru_hole circle (at -12.7294 -0.2629) (size 2 2) (drill 1.15) (layers "*.Cu" "*.Mask") (tstamp b8b3496b-5d5a-46eb-a0cf-d7d6744877bb))
  (pad "P9" thru_hole circle (at -10.1894 -0.2629) (size 2 2) (drill 1.15) (layers "*.Cu" "*.Mask") (tstamp e834a48b-fac9-45ea-a119-11d43d315f32))
  (pad "P10" thru_hole circle (at -7.6494 -0.2629) (size 2 2) (drill 1.15) (layers "*.Cu" "*.Mask") (tstamp edf72707-78e3-44de-a8d7-35c51bfa47f2))
  (pad "P11" thru_hole circle (at -5.1094 -0.2629) (size 2 2) (drill 1.15) (layers "*.Cu" "*.Mask") (tstamp 4a8cdd21-ad61-4da9-aeba-1a838ce41554))
  (pad "P12" thru_hole circle (at -2.5694 -0.2629) (size 2 2) (drill 1.15) (layers "*.Cu" "*.Mask") (tstamp 83544ba9-64e0-4a7f-9932-80092029c12d))
  (pad "P13" thru_hole circle (at -0.0294 -0.2629) (size 2 2) (drill 1.15) (layers "*.Cu" "*.Mask") (tstamp a2a0f95f-36ee-4f53-a522-4489a85f78a3))
  (pad "P14" thru_hole circle (at 2.5106 -0.2629) (size 2 2) (drill 1.15) (layers "*.Cu" "*.Mask") (tstamp e8e224da-6619-4b56-bf7d-4d447e679ad5))
  (pad "P15" thru_hole circle (at 5.0506 -0.2629) (size 2 2) (drill 1.15) (layers "*.Cu" "*.Mask") (tstamp 8cb338db-2dc6-49c6-a008-1f3a0a47b77b))
  (pad "P16" thru_hole circle (at 7.5906 -0.2629) (size 2 2) (drill 1.15) (layers "*.Cu" "*.Mask") (tstamp 977f942c-399c-4b66-8361-8a0f08bfbe88))
  (pad "P17" thru_hole circle (at 10.1306 -0.2629) (size 2 2) (drill 1.15) (layers "*.Cu" "*.Mask") (tstamp 7351c758-f528-4760-b6d7-fd048000bde9))
  (pad "P18" thru_hole circle (at 12.6706 -0.2629) (size 2 2) (drill 1.15) (layers "*.Cu" "*.Mask") (tstamp f9a9bea8-4753-4bdb-8e7c-093bf7e834b7))
  (pad "P19" thru_hole circle (at 12.6659 -2.8029) (size 2 2) (drill 1.15) (layers "*.Cu" "*.Mask") (tstamp 601ad688-6c94-4cd5-a400-198a45f2306a))
  (pad "P20" thru_hole circle (at 10.1259 -2.8029) (size 2 2) (drill 1.15) (layers "*.Cu" "*.Mask") (tstamp e618ae1b-be09-4803-8c74-c874fea5027b))
  (pad "P21" thru_hole circle (at 7.5859 -2.8029) (size 2 2) (drill 1.15) (layers "*.Cu" "*.Mask") (tstamp 525b7000-5dd0-4658-a783-005700d2356b))
  (pad "P22" thru_hole circle (at 5.0459 -2.8029) (size 2 2) (drill 1.15) (layers "*.Cu" "*.Mask") (tstamp b1175b6c-2d9d-4ae5-9166-79896c994d73))
  (pad "P23" thru_hole circle (at 2.5059 -2.8029) (size 2 2) (drill 1.15) (layers "*.Cu" "*.Mask") (tstamp 2b1456ad-af0a-4ad1-85ee-b7363306e137))
  (pad "P24" thru_hole circle (at -0.0341 -2.8029) (size 2 2) (drill 1.15) (layers "*.Cu" "*.Mask") (tstamp 0ca31158-38cc-4dc8-b50e-674de84ca7c0))
  (pad "P25" thru_hole circle (at -2.5741 -2.8029) (size 2 2) (drill 1.15) (layers "*.Cu" "*.Mask") (tstamp 03b642bc-66f1-4d34-b120-81bf2adb7ddb))
  (pad "P26" thru_hole circle (at -5.1141 -2.8029) (size 2 2) (drill 1.15) (layers "*.Cu" "*.Mask") (tstamp 364c1597-68c5-4a26-8955-227db5bac5d0))
  (pad "P27" thru_hole circle (at -7.6541 -2.8029) (size 2 2) (drill 1.15) (layers "*.Cu" "*.Mask") (tstamp a43c8d35-74ce-4c99-9c77-d3b3cdeacd48))
  (pad "P28" thru_hole circle (at -10.1941 -2.8029) (size 2 2) (drill 1.15) (layers "*.Cu" "*.Mask") (tstamp 72778cea-fbb7-4491-9682-45641a48f155))
  (pad "P29" thru_hole circle (at -12.7341 -2.8029) (size 2 2) (drill 1.15) (layers "*.Cu" "*.Mask") (tstamp ccee3ba4-5ad4-42c9-89ff-1ba43716eaf6))
  (pad "P30" thru_hole circle (at -15.2741 -2.8029) (size 2 2) (drill 1.15) (layers "*.Cu" "*.Mask") (tstamp 240bb164-a2e3-4bb9-80ae-e002d711079f))
  (pad "P31" thru_hole circle (at -17.8141 -2.8029 90) (size 2 2) (drill 1.15) (layers "*.Cu" "*.Mask") (tstamp 88e8fe26-9794-4865-8f48-3a8f327fb29a))
  (pad "P32" thru_hole circle (at -20.3541 -2.8029) (size 2 2) (drill 1.15) (layers "*.Cu" "*.Mask") (tstamp 30a68d9b-570f-4158-8b0f-a002a5583340))
  (pad "P33" thru_hole circle (at -22.8941 -2.8029) (size 2 2) (drill 1.15) (layers "*.Cu" "*.Mask") (tstamp efa280ae-0789-4463-9701-df746682d047))
  (pad "P34" thru_hole circle (at -25.4341 -2.8029) (size 2 2) (drill 1.15) (layers "*.Cu" "*.Mask") (tstamp a3c58c04-8e4c-40de-a575-caae1a83a04a))
  (pad "P35" thru_hole circle (at -27.9741 -2.8029) (size 2 2) (drill 1.15) (layers "*.Cu" "*.Mask") (tstamp 5afc4484-a7f0-4169-b83f-34c0ac593faf))
  (pad "P36" thru_hole circle (at -30.5141 -2.8029) (size 2 2) (drill 1.15) (layers "*.Cu" "*.Mask") (tstamp 59e2c7c5-bd62-4f21-a6e4-bcb738c9430f))
  (pad "S1" thru_hole circle (at 16.1706 1.0071) (size 1.54 1.54) (drill 1.15) (layers "*.Cu" "*.Mask") (tstamp 0e4d82b7-85b2-4cdb-888e-eb324f32a92b))
  (pad "S2" thru_hole circle (at 17.4406 2.2771) (size 1.54 1.54) (drill 1.15) (layers "*.Cu" "*.Mask") (tstamp f2f36667-8848-4c86-9c21-fd0a41ecd04d))
  (pad "S3" thru_hole circle (at 18.7106 1.0071) (size 1.54 1.54) (drill 1.15) (layers "*.Cu" "*.Mask") (tstamp 82d3d2d2-5898-4936-b17d-829f561347df))
  (pad "S4" thru_hole circle (at 19.9806 2.2771) (size 1.54 1.54) (drill 1.15) (layers "*.Cu" "*.Mask") (tstamp a0a8bcaa-b440-4024-ab19-4445a271a7a4))
  (pad "S5" thru_hole circle (at 21.2506 1.0071) (size 1.54 1.54) (drill 1.15) (layers "*.Cu" "*.Mask") (tstamp a8c29d76-b268-48fc-bc5d-a279b351f517))
  (pad "S6" thru_hole circle (at 22.5206 2.2771) (size 1.54 1.54) (drill 1.15) (layers "*.Cu" "*.Mask") (tstamp 9db2779e-88a0-4ba0-8e0d-3609775b47d3))
  (pad "S7" thru_hole circle (at 23.7906 1.0071) (size 1.54 1.54) (drill 1.15) (layers "*.Cu" "*.Mask") (tstamp 79bea410-fc2f-4129-9db5-17d1c27b80a1))
  (pad "S8" thru_hole circle (at 25.0606 2.2771) (size 1.54 1.54) (drill 1.15) (layers "*.Cu" "*.Mask") (tstamp 9558d966-c1e5-4c78-bc5c-b2667cbb1a0d))
  (pad "S9" thru_hole circle (at 26.3306 1.0071) (size 1.54 1.54) (drill 1.15) (layers "*.Cu" "*.Mask") (tstamp 034d4b84-cbe8-42c0-bf65-139b736f49c3))
  (pad "S10" thru_hole circle (at 27.6006 2.2771) (size 1.54 1.54) (drill 1.15) (layers "*.Cu" "*.Mask") (tstamp 3f7a6a9f-972f-4fab-ac5e-12ebb3471b44))
  (pad "S11" thru_hole circle (at 28.8706 1.0071) (size 1.54 1.54) (drill 1.15) (layers "*.Cu" "*.Mask") (tstamp 3edee119-185a-4a46-ab1d-a56db582719f))
  (pad "S12" thru_hole circle (at 30.1406 2.2771) (size 1.54 1.54) (drill 1.15) (layers "*.Cu" "*.Mask") (tstamp dba18bdf-ee92-4ab4-9584-ae0da446d2ff))
  (pad "S13" thru_hole circle (at 30.1406 -0.2629) (size 1.54 1.54) (drill 1.15) (layers "*.Cu" "*.Mask") (tstamp c4d4cc2a-ce04-4736-aa4b-df6616db4a9e))
  (pad "S14" thru_hole circle (at 28.8706 -1.5329) (size 1.54 1.54) (drill 1.15) (layers "*.Cu" "*.Mask") (tstamp 232efb01-fd29-4521-9b74-f19fa302f284))
  (pad "S15" thru_hole circle (at 27.6006 -0.2629) (size 1.54 1.54) (drill 1.15) (layers "*.Cu" "*.Mask") (tstamp d3142086-a5c0-42c3-98b2-a36700cdcaab))
  (pad "S16" thru_hole circle (at 26.3306 -1.5329) (size 1.54 1.54) (drill 1.15) (layers "*.Cu" "*.Mask") (tstamp 5749de63-3f49-4a58-a387-db4ac2852b3a))
  (pad "S17" thru_hole circle (at 25.0606 -0.2629) (size 1.54 1.54) (drill 1.15) (layers "*.Cu" "*.Mask") (tstamp 04a49853-8202-45d0-9395-30e691c5674f))
  (pad "S18" thru_hole circle (at 23.7906 -1.5329) (size 1.54 1.54) (drill 1.15) (layers "*.Cu" "*.Mask") (tstamp bcecfea5-28e5-41f9-ac2f-cb93bc1b8a0d))
  (pad "S19" thru_hole circle (at 22.5206 -0.2629) (size 1.54 1.54) (drill 1.15) (layers "*.Cu" "*.Mask") (tstamp c2c6d0c6-12e4-4226-8d5a-eddc420d9601))
  (pad "S20" thru_hole circle (at 21.2506 -1.5329) (size 1.54 1.54) (drill 1.15) (layers "*.Cu" "*.Mask") (tstamp 7023bdc5-f87b-47ea-8aa4-7de6020644b3))
  (pad "S21" thru_hole circle (at 19.9806 -0.2629) (size 1.54 1.54) (drill 1.15) (layers "*.Cu" "*.Mask") (tstamp a90008e5-6661-41ac-8222-95251c6b66c6))
  (pad "S22" thru_hole circle (at 18.7106 -1.5329) (size 1.54 1.54) (drill 1.15) (layers "*.Cu" "*.Mask") (tstamp b4a7ff76-22eb-40bf-a56a-75d7ff932653))
  (pad "S23" thru_hole circle (at 17.4406 -0.2629) (size 1.54 1.54) (drill 1.15) (layers "*.Cu" "*.Mask") (tstamp 5788c686-551c-4ccc-bf75-513c57fa2f75))
  (pad "S24" thru_hole circle (at 16.1706 -1.5329) (size 1.54 1.54) (drill 1.15) (layers "*.Cu" "*.Mask") (tstamp 977ccd22-29bb-4bc5-aac0-a81d29d84165))
  (model ":CUSTOMPRETTY:10130248-001LF.stp"
    (offset (xyz 0 -1 0.01))
    (scale (xyz 1 1 1))
    (rotate (xyz -90 0 0))
  )
)
