(module DC103G9G-SMD (layer F.Cu) (tedit 5FEBB3DD)
  (fp_text reference REF** (at 0 1.5748) (layer F.SilkS)
    (effects (font (size 0.71 0.71) (thickness 0.12)))
  )
  (fp_text value DC103G9G (at 0 0.5588 180) (layer F.Fab)
    (effects (font (size 0.5 0.5) (thickness 0.1)))
  )
  (fp_line (start -0.5588 -0.508) (end -0.5588 -1.2192) (layer F.Fab) (width 0.12))
  (fp_line (start -0.6604 -1.2192) (end -0.6604 -0.508) (layer F.Fab) (width 0.12))
  (fp_line (start -0.6604 -0.508) (end -0.5588 -0.508) (layer F.Fab) (width 0.12))
  (fp_line (start -0.5588 -1.2192) (end -0.6604 -1.2192) (layer F.Fab) (width 0.12))
  (fp_line (start 0.6096 -1.2192) (end 0.6096 -0.508) (layer F.Fab) (width 0.12))
  (fp_line (start 0.7112 -1.2192) (end 0.6096 -1.2192) (layer F.Fab) (width 0.12))
  (fp_line (start 0.7112 -0.508) (end 0.7112 -1.2192) (layer F.Fab) (width 0.12))
  (fp_line (start 0.6096 -0.508) (end 0.7112 -0.508) (layer F.Fab) (width 0.12))
  (fp_line (start -1.0541 -1.4351) (end -1.0541 0.9779) (layer F.CrtYd) (width 0.12))
  (fp_line (start 1.1684 -1.4351) (end -1.0541 -1.4351) (layer F.CrtYd) (width 0.12))
  (fp_line (start 1.1684 0.9779) (end 1.1684 -1.4351) (layer F.CrtYd) (width 0.12))
  (fp_line (start -1.0541 0.9779) (end 1.1684 0.9779) (layer F.CrtYd) (width 0.12))
  (pad 1 smd rect (at 0.6858 0.2159) (size 0.635 1.27) (layers F.Cu F.Paste F.Mask))
  (pad 2 smd roundrect (at -0.5842 0.2159) (size 0.635 1.27) (layers F.Cu F.Paste F.Mask) (roundrect_rratio 0.25))
)
