(footprint "GSB4116341HR" (version 20211014) (generator pcbnew)
  (layer "F.Cu")
  (tedit 0)
  (attr through_hole)
  (fp_text reference "REF**" (at 13.4874 0 90 unlocked) (layer "F.SilkS")
    (effects (font (size 1 1) (thickness 0.15)))
    (tstamp dc0d5cd2-a6e5-494b-90cc-dfa3cbc0ec0a)
  )
  (fp_text value "GSB4116341HR" (at 1.5748 0.2794 unlocked) (layer "F.Fab")
    (effects (font (size 1 1) (thickness 0.15)))
    (tstamp 89d63222-f7b6-48e1-b67f-053990d21f5d)
  )
  (fp_line (start 12.4968 4.191) (end -6.1468 4.182) (layer "F.SilkS") (width 0.12) (tstamp 145ab636-7240-41dd-beac-c340421d43f1))
  (fp_line (start 10.7188 -4.191) (end 12.4968 -2.413) (layer "F.SilkS") (width 0.12) (tstamp 32ed30c9-b183-4729-8ccd-006b88145621))
  (fp_line (start 10.7188 -4.191) (end -6.1468 -4.2) (layer "F.SilkS") (width 0.12) (tstamp 5d34849e-6b8d-4f0c-98d0-461579eac121))
  (fp_line (start -6.1468 5.189) (end -6.1468 4.182) (layer "F.SilkS") (width 0.12) (tstamp 9126ded0-3303-40d5-bf05-aec0f6274ab9))
  (fp_line (start 12.4968 -2.413) (end 12.4968 4.191) (layer "F.SilkS") (width 0.12) (tstamp b1487d0b-8e97-4713-af43-8f15e8103a9e))
  (fp_line (start -6.1468 -4.2) (end -6.1468 -5.207) (layer "F.SilkS") (width 0.12) (tstamp cb97ac0a-267b-46f2-95de-dd3d3457889b))
  (fp_line (start -11.78 3.1) (end -11.78 -3.1) (layer "Eco1.User") (width 0.25) (tstamp 0cd71774-c305-4480-bcb2-e7d5747383d6))
  (fp_line (start -11.9634 -4.1) (end -11.9634 4.1) (layer "Margin") (width 0.12) (tstamp 0c090ead-a38e-4b77-9e86-63bf05e179d9))
  (fp_line (start 12.4968 -4.0894) (end -11.9634 -4.1) (layer "Margin") (width 0.12) (tstamp 6b3af110-4260-48b8-b2a0-85c122b028e6))
  (fp_line (start 12.4968 4.1) (end -11.9634 4.1) (layer "Margin") (width 0.12) (tstamp 7f5101fb-f815-4091-92ad-2136f72a9782))
  (fp_line (start 12.4968 -4.0894) (end 12.4968 4.1) (layer "Margin") (width 0.12) (tstamp ff896ac3-34b7-4736-b5aa-4a6c0a1cef59))
  (fp_line (start 12.2428 -3.85) (end 12.2428 3.85) (layer "B.CrtYd") (width 0.12) (tstamp 224cfc84-0f69-46fa-9a2e-71c73ee34c01))
  (fp_line (start 12.2428 3.85) (end -1.7526 3.85) (layer "B.CrtYd") (width 0.12) (tstamp 765e9a91-eec2-4eb9-91bf-dba5b9aeb397))
  (fp_line (start 12.2428 -3.85) (end -1.7526 -3.85) (layer "B.CrtYd") (width 0.12) (tstamp 7bad3a0a-f123-46c0-8a23-58083c2a892a))
  (fp_line (start -1.7526 -3.85) (end -1.7526 3.85) (layer "B.CrtYd") (width 0.12) (tstamp dba743bd-c5e0-4899-8c3c-dbb8c205541d))
  (fp_line (start -11.9634 -3.85) (end -11.9634 3.85) (layer "F.CrtYd") (width 0.12) (tstamp 0c5d5479-4f8c-455a-84df-3acbd7f26496))
  (fp_line (start 12.2428 -3.85) (end 12.2428 3.85) (layer "F.CrtYd") (width 0.12) (tstamp 23cf8134-f6b1-4b31-96b7-cd74cee5f871))
  (fp_line (start 12.2428 -3.85) (end -11.9634 -3.85) (layer "F.CrtYd") (width 0.12) (tstamp 43c23b69-2185-4f51-a42a-25613cb830f9))
  (fp_line (start 12.2428 3.85) (end -11.9634 3.85) (layer "F.CrtYd") (width 0.12) (tstamp 6a948e1d-857a-4ce5-8c12-d3db62f4b238))
  (fp_line (start 12.2428 -3.85) (end -11.9634 -3.85) (layer "F.Fab") (width 0.12) (tstamp 2b16bd68-58ca-402b-a14e-b5d72457b805))
  (fp_line (start -11.9634 -3.85) (end -11.9634 3.85) (layer "F.Fab") (width 0.12) (tstamp 8babbabc-c3c4-4cde-b04e-c4c1a2a4b890))
  (fp_line (start 12.2428 -3.85) (end 12.2428 3.85) (layer "F.Fab") (width 0.12) (tstamp 8d6c136d-5d9e-4078-a2c7-feadfe956611))
  (fp_line (start 12.2428 3.85) (end -11.9634 3.85) (layer "F.Fab") (width 0.12) (tstamp b9ed0196-42ba-4a42-9665-0a349d9de3d2))
  (pad "" np_thru_hole circle (at 10.7 2.9) (size 1.5 1.5) (drill 1.5) (layers F&B.Cu *.Mask) (tstamp 2bff28d8-6eca-42aa-af35-b177ed99518c))
  (pad "" np_thru_hole circle (at 0 2.9) (size 1.5 1.5) (drill 1.5) (layers F&B.Cu *.Mask) (tstamp 2f741393-e9ec-49a4-a530-a879e49330a0))
  (pad "" np_thru_hole circle (at 10.7 -2.9) (size 1.5 1.5) (drill 1.5) (layers F&B.Cu *.Mask) (tstamp 5ffb1ab3-2cb4-4ef9-b4f9-cb9bde84dce6))
  (pad "" np_thru_hole circle (at 0 -2.9) (size 1.5 1.5) (drill 1.5) (layers F&B.Cu *.Mask) (tstamp dc2f82e6-417f-46a5-bb5c-b5e874f213c2))
  (pad "1" thru_hole rect (at 8.83 -0.9) (size 1 1) (drill 0.5) (layers *.Cu *.Mask "F.Paste") (tstamp c09fe57e-b22a-488d-9a6b-7eb1949a8f4d))
  (pad "2" thru_hole circle (at 6.33 -0.9) (size 1 1) (drill 0.5) (layers *.Cu *.Mask "F.Paste") (tstamp 07220887-fd5d-469d-a684-a49e8e0365ae))
  (pad "3" thru_hole circle (at 4.33 -0.9) (size 1 1) (drill 0.5) (layers *.Cu *.Mask "F.Paste") (tstamp a05e721a-b664-45da-bf8a-a14977e2531a))
  (pad "4" thru_hole circle (at 1.83 -0.9) (size 1 1) (drill 0.5) (layers *.Cu *.Mask "F.Paste") (tstamp e7836b50-f6f8-4925-899f-b563c90248b9))
  (pad "5" thru_hole circle (at 1.33 1.5) (size 1 1) (drill 0.5) (layers *.Cu *.Mask "F.Paste") (tstamp 6a0f8ce6-c63d-4cd8-8b71-d0b2e3b848bb))
  (pad "6" thru_hole circle (at 3.33 1.5) (size 1 1) (drill 0.5) (layers *.Cu *.Mask "F.Paste") (tstamp 26efcacc-18ec-4e48-8d14-e0c2d4a4eb28))
  (pad "7" thru_hole circle (at 5.33 1.5) (size 1 1) (drill 0.5) (layers *.Cu *.Mask "F.Paste") (tstamp 26022d08-86a1-42de-9f0f-11abb2a1893c))
  (pad "8" thru_hole circle (at 7.33 1.5) (size 1 1) (drill 0.5) (layers *.Cu *.Mask "F.Paste") (tstamp 4ec0e93e-4a49-4859-bb3a-049d0935f1a1))
  (pad "9" thru_hole circle (at 9.33 1.5) (size 1 1) (drill 0.5) (layers *.Cu *.Mask "F.Paste") (tstamp 047e3da2-4137-4b9f-88d6-f99aa1e06fc5))
  (model "${CUSTOMPRETTY}/GSB4116341HR.stp"
    (offset (xyz -1.5 0 7.5))
    (scale (xyz 1 1 1))
    (rotate (xyz -90 0 90))
  )
)
