(footprint "MOLEX_2068320401" (version 20211014) (generator pcbnew)
  (layer "F.Cu")
  (tedit 60E219B0)
  (attr through_hole)
  (fp_text reference "REF**" (at -2.325 -8.635) (layer "F.SilkS")
    (effects (font (size 1 1) (thickness 0.15)))
    (tstamp ea01f971-aee0-47d9-8af4-96338e6c20e1)
  )
  (fp_text value "MOLEX_2068320401" (at 4.66 4.365) (layer "F.Fab")
    (effects (font (size 1 1) (thickness 0.15)))
    (tstamp 5f35c49b-ad76-4752-b8aa-257bea5f637b)
  )
  (fp_line (start -2.2 -6.33) (end -0.8 -6.33) (layer "F.SilkS") (width 0.127) (tstamp 1ad3e135-f8bd-402d-842a-93d09c8c2484))
  (fp_line (start 2.9 0.3) (end 2.4 0) (layer "F.SilkS") (width 0.127) (tstamp 22904d6e-3d64-44c8-8696-07aab66e03e0))
  (fp_line (start -4.925 1.93) (end -4.925 -3.2) (layer "F.SilkS") (width 0.127) (tstamp a7643eef-dab9-4766-b597-98df767ed899))
  (fp_line (start 1.925 1.93) (end -4.925 1.93) (layer "F.SilkS") (width 0.127) (tstamp b42c00c9-99e6-412c-81bc-fe8033c93e1f))
  (fp_line (start -4.925 -6.33) (end -2.2 -6.33) (layer "F.SilkS") (width 0.127) (tstamp b45da330-60b7-4928-8fa4-fcc311394b0b))
  (fp_line (start 2.9 -0.3) (end 2.9 0.3) (layer "F.SilkS") (width 0.127) (tstamp c1352830-6691-4a54-9303-6942b7df2377))
  (fp_line (start -0.8 -6.33) (end 1.925 -6.33) (layer "F.SilkS") (width 0.127) (tstamp d3464bd5-993f-4be0-854f-ab35aa420658))
  (fp_line (start -4.925 -4.75) (end -4.925 -6.33) (layer "F.SilkS") (width 0.127) (tstamp e4e15880-b62e-4644-a332-a7bb66d95814))
  (fp_line (start 1.925 -6.33) (end 1.925 1.93) (layer "F.SilkS") (width 0.127) (tstamp f288a6e9-4325-4c83-9703-11811f93cd25))
  (fp_line (start 2.4 0) (end 2.9 -0.3) (layer "F.SilkS") (width 0.127) (tstamp f81cb1ac-e7bf-4e48-9dc2-ee1cd9804661))
  (fp_circle (center -3 0) (end -2.5819 0) (layer "B.Mask") (width 0.8362) (fill none) (tstamp 311cada9-4e8e-4dd6-9310-b3abccbebc3b))
  (fp_circle (center -4.28 -3.98) (end -3.9869 -3.98) (layer "B.Mask") (width 0.5862) (fill none) (tstamp 91904092-577b-48ed-8fa9-36340fe7f648))
  (fp_circle (center 0 -3) (end 0.4181 -3) (layer "B.Mask") (width 0.8362) (fill none) (tstamp e9481c87-350e-474d-9b38-01419acf2a09))
  (fp_circle (center -3 -3) (end -2.5819 -3) (layer "B.Mask") (width 0.8362) (fill none) (tstamp f1391118-76bb-4c15-841a-9bf2ce006b54))
  (fp_poly (pts
      (xy -0.8362 -0.8362)
      (xy 0.8362 -0.8362)
      (xy 0.8362 0.8362)
      (xy -0.8362 0.8362)
    ) (layer "B.Mask") (width 0.01) (fill solid) (tstamp e7ab1e92-b205-4c41-a8d5-120ef8cabda7))
  (fp_circle (center -3 -3) (end -2.5819 -3) (layer "F.Mask") (width 0.8362) (fill none) (tstamp 381f0a54-dda3-4be2-913f-00ba8fbf44af))
  (fp_circle (center -3 0) (end -2.5819 0) (layer "F.Mask") (width 0.8362) (fill none) (tstamp a277870e-f3f6-4add-af2e-81623e98ebb2))
  (fp_circle (center -4.28 -3.98) (end -3.9869 -3.98) (layer "F.Mask") (width 0.5862) (fill none) (tstamp dd5a9988-471c-4765-907b-10956111063c))
  (fp_circle (center 0 -3) (end 0.4181 -3) (layer "F.Mask") (width 0.8362) (fill none) (tstamp f79915aa-4dd2-499b-9fa4-0ab487c4e8f4))
  (fp_poly (pts
      (xy -0.8362 -0.8362)
      (xy 0.8362 -0.8362)
      (xy 0.8362 0.8362)
      (xy -0.8362 0.8362)
    ) (layer "F.Mask") (width 0.01) (fill solid) (tstamp 79d38fc4-956c-4b9e-98e8-97998fa65c0f))
  (fp_line (start 3.195 -7.6) (end 3.195 3.2) (layer "F.CrtYd") (width 0.05) (tstamp 3b13a527-a8ac-4837-bb65-d9aa9ab684cf))
  (fp_line (start -6.195 -7.6) (end 3.195 -7.6) (layer "F.CrtYd") (width 0.05) (tstamp 43e0f82f-8c53-4940-86c0-bcf1cb370a6d))
  (fp_line (start -6.195 3.2) (end -6.195 -7.6) (layer "F.CrtYd") (width 0.05) (tstamp c18aa8a5-dcb8-4388-a351-e99193c1452b))
  (fp_line (start 3.195 3.2) (end -6.195 3.2) (layer "F.CrtYd") (width 0.05) (tstamp d168127e-b623-4bb2-8da1-d412ba1b98ec))
  (fp_line (start 2.9 0.3) (end 2.4 0) (layer "F.Fab") (width 0.127) (tstamp 1e984c90-1164-4ba4-99b2-77ffa66d13bb))
  (fp_line (start -4.925 1.93) (end -4.925 -6.33) (layer "F.Fab") (width 0.127) (tstamp 4f112fe5-adca-4017-aa66-98b65196fe94))
  (fp_line (start -4.925 -6.33) (end -2.2 -6.33) (layer "F.Fab") (width 0.127) (tstamp 54408101-2a69-4ed3-b2ca-580a777e9c8b))
  (fp_line (start -0.8 -6.33) (end 1.925 -6.33) (layer "F.Fab") (width 0.127) (tstamp 9192d749-da61-4ba5-bf01-e3d8378dcb66))
  (fp_line (start 2.4 0) (end 2.9 -0.3) (layer "F.Fab") (width 0.127) (tstamp 943735bb-86a8-4529-9e13-171e5bd9017e))
  (fp_line (start 1.925 1.93) (end -4.925 1.93) (layer "F.Fab") (width 0.127) (tstamp 981a7bf7-c513-462b-945d-37b689670fd0))
  (fp_line (start 2.9 -0.3) (end 2.9 0.3) (layer "F.Fab") (width 0.127) (tstamp 9f563a5b-6b23-40df-a61a-760247e24017))
  (fp_line (start 1.925 -6.33) (end 1.925 1.93) (layer "F.Fab") (width 0.127) (tstamp c8b55ea6-5caf-42bd-8bf8-3300e0690c9b))
  (fp_line (start -2.2 -6.33) (end -0.8 -6.33) (layer "F.Fab") (width 0.127) (tstamp ff620f4b-44ee-44a7-9c7c-cce8d1133c57))
  (pad "" np_thru_hole circle (at -4.28 -3.98) (size 1.02 1.02) (drill 1.02) (layers *.Cu *.Mask) (tstamp 43b6eb17-d1ad-4f8d-bd2b-3c6b60d9f6dd))
  (pad "1" thru_hole rect (at 0 0) (size 1.52 1.52) (drill 1.02) (layers *.Cu) (tstamp d6d40144-0595-4ac4-b5ee-92cf9e3bf683))
  (pad "2" thru_hole circle (at -3 0) (size 1.52 1.52) (drill 1.02) (layers *.Cu) (tstamp f820d03f-c72b-449f-b836-24e1338377c0))
  (pad "3" thru_hole circle (at 0 -3) (size 1.52 1.52) (drill 1.02) (layers *.Cu) (tstamp a5448c96-6d54-456e-b2df-1a03bc4d5959))
  (pad "4" thru_hole circle (at -3 -3) (size 1.52 1.52) (drill 1.02) (layers *.Cu) (tstamp a455c384-ce34-4a6a-ad7a-c3491a64fbe0))
  (model "${CUSTOMPRETTY}/2068320401.step"
    (offset (xyz -1.5 2.25 3.45))
    (scale (xyz 1 1 1))
    (rotate (xyz 0 0 0))
  )
)
