(footprint "MountingHole_M3_Standoff" (version 20221018) (generator pcbnew)
  (layer "F.Cu")
  (descr "Mounting Hole M3 Standoff")
  (tags "mounting hole m3 standoff")
  (attr exclude_from_pos_files exclude_from_bom)
  (fp_text reference "REF**" (at 0 -4.2) (layer "F.SilkS")
      (effects (font (size 1 1) (thickness 0.15)))
    (tstamp c411becc-e7da-4ffe-b984-354a8360a757)
  )
  (fp_text value "MountingHole_M3_Standoff" (at 0 4.2) (layer "F.Fab")
      (effects (font (size 1 1) (thickness 0.15)))
    (tstamp e425360f-bf67-43b0-929e-a24c0e3b7add)
  )
  (fp_text user "${REFERENCE}" (at 0 0) (layer "F.Fab")
      (effects (font (size 1 1) (thickness 0.15)))
    (tstamp cd9168f1-709f-4322-85d6-abd4de5735bf)
  )
  (fp_circle (center 0 0) (end 3.2 0)
    (stroke (width 0.15) (type solid)) (fill none) (layer "Cmts.User") (tstamp 09f1d3ac-6e8d-4f4f-b129-17dadbcdcc51))
  (fp_circle (center 0 0) (end 3.45 0)
    (stroke (width 0.05) (type solid)) (fill none) (layer "F.CrtYd") (tstamp 961f60f7-0941-4970-98dd-60fe41a6146a))
  (pad "1" thru_hole circle (at 0 0) (size 7.4 7.4) (drill 4.35) (layers "*.Cu" "*.Paste" "*.Mask") (tstamp b9ef6013-eeea-4412-8f7e-41b43590b259))
  (model ":CUSTOMPRETTY:9774050360R.stp"
    (offset (xyz 0 0 5))
    (scale (xyz 1 1 1))
    (rotate (xyz 90 0 0))
  )
)
