(module SOIC-8_SOP-8_custom (layer F.Cu) (tedit 611A2428)
  (descr "Custom SOIC8 / SOP8 P1.27 for interchangability")
  (tags "SOIC SOP")
  (attr smd)
  (fp_text reference REF** (at 0 -3.4) (layer F.SilkS)
    (effects (font (size 1 1) (thickness 0.15)))
  )
  (fp_text value SOIC-8_SOP-8 (at 0 3.4) (layer F.Fab)
    (effects (font (size 1 1) (thickness 0.15)))
  )
  (fp_line (start 4.65 -2.86) (end -4.65 -2.86) (layer F.CrtYd) (width 0.05))
  (fp_line (start 4.65 2.86) (end 4.65 -2.86) (layer F.CrtYd) (width 0.05))
  (fp_line (start -4.65 2.86) (end 4.65 2.86) (layer F.CrtYd) (width 0.05))
  (fp_line (start -4.65 -2.86) (end -4.65 2.86) (layer F.CrtYd) (width 0.05))
  (fp_line (start -2.64 -1.615) (end -1.64 -2.615) (layer F.Fab) (width 0.1))
  (fp_line (start -2.64 2.615) (end -2.64 -1.615) (layer F.Fab) (width 0.1))
  (fp_line (start 2.64 2.615) (end -2.64 2.615) (layer F.Fab) (width 0.1))
  (fp_line (start 2.64 -2.615) (end 2.64 2.615) (layer F.Fab) (width 0.1))
  (fp_line (start -1.64 -2.615) (end 2.64 -2.615) (layer F.Fab) (width 0.1))
  (fp_line (start -2.75 -2.465) (end -4.4 -2.465) (layer F.SilkS) (width 0.12))
  (fp_line (start -2.75 -2.725) (end -2.75 -2.465) (layer F.SilkS) (width 0.12))
  (fp_line (start 0 -2.725) (end -2.75 -2.725) (layer F.SilkS) (width 0.12))
  (fp_line (start 2.75 -2.725) (end 2.75 -2.465) (layer F.SilkS) (width 0.12))
  (fp_line (start 0 -2.725) (end 2.75 -2.725) (layer F.SilkS) (width 0.12))
  (fp_line (start -2.75 2.725) (end -2.75 2.465) (layer F.SilkS) (width 0.12))
  (fp_line (start 0 2.725) (end -2.75 2.725) (layer F.SilkS) (width 0.12))
  (fp_line (start 2.75 2.725) (end 2.75 2.465) (layer F.SilkS) (width 0.12))
  (fp_line (start 0 2.725) (end 2.75 2.725) (layer F.SilkS) (width 0.12))
  (fp_text user %R (at 0 0) (layer F.Fab)
    (effects (font (size 0.98 0.98) (thickness 0.15)))
  )
  (pad 8 smd roundrect (at 2.9464 -1.905) (size 2.9 0.6) (layers F.Cu F.Paste F.Mask) (roundrect_rratio 0.25))
  (pad 1 smd roundrect (at -2.9464 -1.905) (size 2.9 0.6) (layers F.Cu F.Paste F.Mask) (roundrect_rratio 0.25))
  (pad 2 smd roundrect (at -2.9464 -0.635) (size 2.9 0.6) (layers F.Cu F.Paste F.Mask) (roundrect_rratio 0.25))
  (pad 3 smd roundrect (at -2.9464 0.635) (size 2.9 0.6) (layers F.Cu F.Paste F.Mask) (roundrect_rratio 0.25))
  (pad 4 smd roundrect (at -2.9464 1.905) (size 2.9 0.6) (layers F.Cu F.Paste F.Mask) (roundrect_rratio 0.25))
  (pad 7 smd roundrect (at 2.9464 -0.635) (size 2.9 0.6) (layers F.Cu F.Paste F.Mask) (roundrect_rratio 0.25))
  (pad 6 smd roundrect (at 2.9464 0.635) (size 2.9 0.6) (layers F.Cu F.Paste F.Mask) (roundrect_rratio 0.25))
  (pad 5 smd roundrect (at 2.9464 1.905) (size 2.9 0.6) (layers F.Cu F.Paste F.Mask) (roundrect_rratio 0.25))
  (model ${KISYS3DMOD}/Package_SO.3dshapes/SOIC-8_3.9x4.9mm_P1.27mm.wrl
    (at (xyz 0 0 0))
    (scale (xyz 1 1 1))
    (rotate (xyz 0 0 0))
  )
)
