(module WLCSP-6_1.4x1.0mm_P0.4mm-INVERT (layer F.Cu) (tedit 5F93A6D7)
  (descr "6pin Pitch 0.4mm")
  (tags "6pin Pitch 0.4mm WLCSP")
  (solder_mask_margin 0.01)
  (clearance 0.05)
  (attr smd)
  (fp_text reference REF** (at 0 -1.7) (layer F.SilkS)
    (effects (font (size 1 1) (thickness 0.15)))
  )
  (fp_text value WLCSP-6_1.4x1.0mm_P0.4mm (at 0 1.8) (layer F.Fab)
    (effects (font (size 1 1) (thickness 0.15)))
  )
  (fp_line (start -0.68508 -0.48508) (end -0.68508 0.09492) (layer F.Fab) (width 0.1))
  (fp_line (start -0.30508 0.47492) (end 0.67492 0.47492) (layer F.Fab) (width 0.1))
  (fp_line (start 0.67492 0.47492) (end 0.67492 -0.48508) (layer F.Fab) (width 0.1))
  (fp_line (start 0.67492 -0.48508) (end -0.68508 -0.48508) (layer F.Fab) (width 0.1))
  (fp_line (start -0.78 0.58) (end -0.78 -0.58) (layer F.SilkS) (width 0.12))
  (fp_line (start -0.78 -0.58) (end 0.78 -0.58) (layer F.SilkS) (width 0.12))
  (fp_line (start 0.78 -0.58) (end 0.78 0.58) (layer F.SilkS) (width 0.12))
  (fp_line (start 0.78 0.58) (end -0.78 0.58) (layer F.SilkS) (width 0.12))
  (fp_line (start -0.95 0.75) (end -0.95 -0.75) (layer F.CrtYd) (width 0.05))
  (fp_line (start -0.95 -0.75) (end 0.95 -0.75) (layer F.CrtYd) (width 0.05))
  (fp_line (start 0.95 -0.75) (end 0.95 0.75) (layer F.CrtYd) (width 0.05))
  (fp_line (start 0.95 0.75) (end -0.95 0.75) (layer F.CrtYd) (width 0.05))
  (fp_circle (center -1 0.80264) (end -0.9 0.80264) (layer F.SilkS) (width 0.12))
  (fp_line (start -0.68508 0.09492) (end -0.30508 0.47492) (layer F.Fab) (width 0.1))
  (fp_text user %R (at 0 -1.7) (layer F.Fab)
    (effects (font (size 1 1) (thickness 0.15)))
  )
  (pad C2 smd circle (at 0.4 -0.2 90) (size 0.25 0.25) (layers F.Cu F.Paste F.Mask)
    (solder_mask_margin 0.02))
  (pad C1 smd circle (at 0.4 0.2 90) (size 0.25 0.25) (layers F.Cu F.Paste F.Mask)
    (solder_mask_margin 0.02))
  (pad B2 smd circle (at 0 -0.2 90) (size 0.25 0.25) (layers F.Cu F.Paste F.Mask)
    (solder_mask_margin 0.02))
  (pad B1 smd circle (at 0 0.2 90) (size 0.25 0.25) (layers F.Cu F.Paste F.Mask)
    (solder_mask_margin 0.02))
  (pad A2 smd circle (at -0.4 -0.2 90) (size 0.25 0.25) (layers F.Cu F.Paste F.Mask)
    (solder_mask_margin 0.02))
  (pad A1 smd circle (at -0.4 0.2 90) (size 0.25 0.25) (layers F.Cu F.Paste F.Mask)
    (solder_mask_margin 0.02))
  (model ${KISYS3DMOD}/Package_CSP.3dshapes/WLCSP-6_1.4x1.0mm_P0.4mm.wrl
    (at (xyz 0 0 0))
    (scale (xyz 1 1 1))
    (rotate (xyz 0 0 0))
  )
)
